# Blender v2.60 (sub 0) OBJ File: 'cube.blend'
# www.blender.org
mtllib cube.mtl
o Cube
v 1.000000 -1.000000 -1.000000
v 1.000000 -1.000000 1.000000
v -1.000000 -1.000000 1.000000
v -1.000000 -1.000000 -1.000000
v 1.000000 1.000000 -0.999999
v 0.999999 1.000000 1.000001
v -1.000000 1.000000 1.000000
v -1.000000 1.000000 -1.000000
vt 1.000000 0.999999
vt 0.000000 1.000000
vt 0.000000 0.000000
vt 0.999999 0.000000
vt 1.000000 0.000000
vt 1.000000 1.000000
usemtl Material_top_face
s off
f 5/1 8/2 7/3 6/4
f 1/3 2/5 3/6 4/2
f 1/3 5/5 6/6 2/2
f 2/3 6/5 7/6 3/2
f 3/3 7/5 8/6 4/2
f 5/3 1/5 4/6 8/2
