# Blender MTL File: 'ship2.blend'
# Material Count: 1
newmtl Material_ship2.png
Ns 96.078431
Ka 0.500000 0.500000 0.500000
Kd 0.640000 0.640000 0.640000
Ks 0.500000 0.500000 0.500000
Ni 1.000000
d 1.000000
illum 2
map_Kd ship2.png


