{
        "name": "Ship",
        "author": "David Serrano",
        "physics": {
                "gravity": 0.05,
                "friction": 0.01,
                "maxspeed": 2.0,
                "minspeed": -1.0,
                "climbangle": 70.0,
                "speeddecayhit": -1.5,
                "turndecay": 0.5,
                "driftfactor": 1.75
        },
        "controls": {
                "maxturning": 3.0,
                "turningstep": 1.0,
                "accelstep": 0.05,
                "brakestep": 0.05
        },
        "model": "ship2.obj"
}