{
    "name": "surf",
    "description": "2D Surfaces vertex shader",
    "author": "David Serrano",
    "shaders": [
        ["surf.vert", "surf.frag"],
        ["surf_120.vert", "surf_120.frag"]
    ]
}